[
  {
    "id": "144512",
    "fact": "Quand Chuck Norris fait l'épreuve des araignées dans Fort Boyard, elles sortent elles-mêmes les petits papiers et lisent à voix haute.",
    "date": "1504726103",
    "vote": "267",
    "points": "808"
  },
  {
    "id": "126296",
    "fact": "Chuck Norris peut faire des ronds avec une equerre",
    "date": "1504726086",
    "vote": "164",
    "points": "553"
  },
  {
    "id": "136623",
    "fact": "Chuck Norris peut écrire un traitement de texte avec la souris.",
    "date": "1504726082",
    "vote": "97",
    "points": "216"
  },
  {
    "id": "139310",
    "fact": "Peter Parker a été mordu par une araignée, Clark Kent a été mordu par Chuck Norris",
    "date": "1504726078",
    "vote": "96",
    "points": "287"
  },
  {
    "id": "169729",
    "fact": "Chuck norris se souvient très bien de son futur",
    "date": "1498479776",
    "vote": "202",
    "points": "781"
  },
  {
    "id": "153388",
    "fact": "Chuck Norris peut dire Schwarzkopf en verlan.",
    "date": "1497256302",
    "vote": "206",
    "points": "734"
  },
  {
    "id": "163647",
    "fact": "Rien ne sert de jouer aux échecs avec Chuck Norris, il ne connait pas l'échec.",
    "date": "1424901109",
    "vote": "1909",
    "points": "7165"
  },
  {
    "id": "145432",
    "fact": "Chuck Norris ne prends jamais de laxatif; personne ne fait chier Chuck Norris !",
    "date": "1424347568",
    "vote": "1665",
    "points": "6565"
  },
  {
    "id": "165934",
    "fact": "Le papier WC de Chuck Norris n'a pas de fin. Chuck Norris n'est jamais au bout du rouleau.",
    "date": "1424347495",
    "vote": "1490",
    "points": "5809"
  },
  {
    "id": "134435",
    "fact": "Chuck Norris a gagné la guerre du Golf, en 18 trous.",
    "date": "1424347465",
    "vote": "1505",
    "points": "5605"
  },
  {
    "id": "168662",
    "fact": "Les portraits de Chuck Norris ne sont pas a vendre. On ne se paie pas la tête de Chuck Norris.",
    "date": "1424254593",
    "vote": "1275",
    "points": "4888"
  },
  {
    "id": "143937",
    "fact": "L'ordinateur de Chuck Norris n'a pas de bouton \"CRTL\". Chuck Norris a toujours le contrôle.",
    "date": "1424254446",
    "vote": "1329",
    "points": "4343"
  },
  {
    "id": "168642",
    "fact": "Chuck Norris a deja reussi a casser 3 pattes a un canard.",
    "date": "1424254421",
    "vote": "1546",
    "points": "5987"
  },
  {
    "id": "180099",
    "fact": "En Avril dernier, Chuk Norris a fait un barbecue... et les aéroports européens ont été fermés pendant une semaine...",
    "date": "1397133336",
    "vote": "3046",
    "points": "7710"
  },
  {
    "id": "179408",
    "fact": "Depuis le 11 septembre 2001 Chuck Norris ne lance plus d'avions en papier.",
    "date": "1397133312",
    "vote": "3780",
    "points": "15833"
  },
  {
    "id": "177852",
    "fact": "Le nombre de choses impossibles pour Chuck Norris est inférieur à zéro.",
    "date": "1397133254",
    "vote": "2386",
    "points": "8472"
  },
  {
    "id": "178217",
    "fact": "Un jour, Chuck Norris a plongé dans la Mer Rouge. Moïse en a profité pour passer.",
    "date": "1397133233",
    "vote": "2933",
    "points": "12183"
  },
  {
    "id": "174284",
    "fact": "Quand chuck norris dit qu'il a inventé les ricolas, les Suisses ferment leurs gueules",
    "date": "1384438780",
    "vote": "4007",
    "points": "11308"
  },
  {
    "id": "174121",
    "fact": "M.Propre était videur et ne voulait pas laisser chuck rentrer en boite, maintenant il est femme de ménage !!",
    "date": "1384438738",
    "vote": "3376",
    "points": "11334"
  },
  {
    "id": "174687",
    "fact": "Chuck Norris mange ses oranges tout rond: Chuck Norris fait pas de quartier.",
    "date": "1384438563",
    "vote": "4287",
    "points": "17914"
  }
]